Humidity functions • ConSciR
…
Example of use of the functions

TRHgrid |> 
  mutate(
    Abs = calcAH(Temp, RH), 
    DewPoint = calcDP(Temp, RH), 
    Temp_calc = calcTemp(RH, DewPoint),
    RH_AH_calc = calcRH(Temp, Abs),
    RH_DP_calc = calcRH_DP(Temp, DewPoint),
    MR = calcMR(Temp, RH), 
    Enthalpy = calcEnthalpy(Temp, RH), 
    Pws = calcPws(Temp), 
    Pw = calcPw(Temp, RH),
    LM = calcLM(Temp, RH))
#> # A tibble: 60,701 × 12
#>     Temp    RH   Abs DewPoint Temp_calc RH_AH_calc RH_DP_calc    MR Enthalpy
#>    <dbl> <dbl> <dbl>    <dbl>     <dbl>      <dbl>      <dbl> <dbl>    <dbl>
#>  1 -50       0     0      NaN       NaN          0        NaN     0    -50.5
#>  2 -49.8     0     0      NaN       NaN          0        NaN     0    -50.2
#>  3 -49.5     0     0      NaN       NaN          0        NaN     0    -50.0
#>  4 -49.2     0     0      NaN       NaN          0        NaN     0    -49.7
#>  5 -49       0     0      NaN       NaN          0        NaN     0    -49.5
#>  6 -48.8     0     0      NaN       NaN          0        NaN     0    -49.2
#>  7 -48.5     0     0      NaN       NaN          0        NaN     0    -49.0
#>  8 -48.2     0     0      NaN       NaN          0        NaN     0    -48.7
#>  9 -48       0     0      NaN       NaN          0        NaN     0    -48.5
#> 10 -47.8     0     0      NaN       NaN          0        NaN     0    -48.2
#> # ℹ 60,691 more rows
#> # ℹ 3 more variables: Pws <dbl>, Pw <dbl>, LM <dbl>
…
